[
  {
    "profilerName": "Ayk without any layout",
    "numOfReRenders": 10,
    "numOfRenderdComponent": 100,
    "reRenderIntervar": 1000,
    "total": {
      "actualTime": "117.80000000453583",
      "baseTime": "56.900000001405715",
      "defrance": "149.6999999990294"
    },
    "avg": {
      "actualTime": "11.780000000453583",
      "baseTime": "5.6900000001405715",
      "defrance": "14.969999999902939"
    }
  },
  {
    "profilerName": "Ayk with layout",
    "numOfReRenders": 10,
    "numOfRenderdComponent": 100,
    "reRenderIntervar": 1000,
    "total": {
      "actualTime": "27299.100000015642",
      "baseTime": "24764.89999999012",
      "defrance": "35174.00000000089"
    },
    "avg": {
      "actualTime": "2481.7363636377854",
      "baseTime": "2251.3545454536475",
      "defrance": "3197.6363636364445"
    }
  },
  {
    "profilerName": "Ayk without Rows And Columns",
    "numOfReRenders": 10,
    "numOfRenderdComponent": 100,
    "reRenderIntervar": 1000,
    "total": {
      "actualTime": "20169.199999991484",
      "baseTime": "18273.19999998166",
      "defrance": "26058.49999999965"
    },
    "avg": {
      "actualTime": "1833.563636362862",
      "baseTime": "1661.199999998333",
      "defrance": "2368.9545454545137"
    }
  },
  {
    "profilerName": "Ayk with buttons only",
    "numOfReRenders": 10,
    "numOfRenderdComponent": 100,
    "reRenderIntervar": 1000,
    "total": {
      "actualTime": "18554.59999999833",
      "baseTime": "16801.999999996202",
      "defrance": "23846.700000000284"
    },
    "avg": {
      "actualTime": "1686.7818181816663",
      "baseTime": "1527.4545454542001",
      "defrance": "2167.881818181844"
    }
  },
  {
    "profilerName": "Ayk with labels only",
    "numOfReRenders": 10,
    "numOfRenderdComponent": 100,
    "reRenderIntervar": 1000,
    "total": {
      "actualTime": "4289.00000000006",
      "baseTime": "3703.200000001574",
      "defrance": "6186.999999999896"
    },
    "avg": {
      "actualTime": "389.9090909090964",
      "baseTime": "336.65454545468856",
      "defrance": "562.4545454545361"
    }
  },
  {
    "profilerName": "Ayk with one Button Only",
    "numOfReRenders": 10,
    "numOfRenderdComponent": 100,
    "reRenderIntervar": 1000,
    "total": {
      "actualTime": "1493.800000000192",
      "baseTime": "1331.1999999991713",
      "defrance": "1846.6000000000804"
    },
    "avg": {
      "actualTime": "135.80000000001746",
      "baseTime": "121.01818181810648",
      "defrance": "167.87272727273458"
    }
  },
  {
    "profilerName": "functional components Buttons",
    "numOfReRenders": 10,
    "numOfRenderdComponent": 100,
    "reRenderIntervar": 1000,
    "total": {
      "actualTime": "12998.300000006566",
      "baseTime": "12263.199999981225",
      "defrance": "14082.000000000335"
    },
    "avg": {
      "actualTime": "1299.8300000006566",
      "baseTime": "1226.3199999981225",
      "defrance": "1408.2000000000335"
    }
  },
  {
    "profilerName": "functional components one button",
    "numOfReRenders": 10,
    "numOfRenderdComponent": 100,
    "reRenderIntervar": 1000,
    "total": {
      "actualTime": "1118.1000000033237",
      "baseTime": "1027.0999999811465",
      "defrance": "1221.9000000004598"
    },
    "avg": {
      "actualTime": "111.81000000033237",
      "baseTime": "102.70999999811465",
      "defrance": "122.19000000004598"
    }
  },
  {
    "profilerName": "bootstap buttons",
    "numOfReRenders": 10,
    "numOfRenderdComponent": 100,
    "reRenderIntervar": 1000,
    "total": {
      "actualTime": "539.7000000812113",
      "baseTime": "204.49999989796197",
      "defrance": "602.2999999986496"
    },
    "avg": {
      "actualTime": "53.97000000812113",
      "baseTime": "20.449999989796197",
      "defrance": "60.22999999986496"
    }
  },
  {
    "profilerName": "only one bootstap button",
    "numOfReRenders": 10,
    "numOfRenderdComponent": 100,
    "reRenderIntervar": 1000,
    "total": {
      "actualTime": "262.6000000091153",
      "baseTime": "109.60000015620608",
      "defrance": "346.9999999870197"
    },
    "avg": {
      "actualTime": "26.260000000911532",
      "baseTime": "10.960000015620608",
      "defrance": "34.69999999870197"
    }
  },
  {
    "profilerName": "bootstap buttons with layouts",
    "numOfReRenders": 10,
    "numOfRenderdComponent": 100,
    "reRenderIntervar": 1000,
    "total": {
      "actualTime": "545.1000001921784",
      "baseTime": "186.099999860744",
      "defrance": "605.4000000149244"
    },
    "avg": {
      "actualTime": "54.51000001921784",
      "baseTime": "18.6099999860744",
      "defrance": "60.540000001492444"
    }
  }
]